
./src/risc_v/risc-v-sandbox rvemu --input tezt/tests/riscv-tests/hermit-loader --initrd src/risc_v/risc-v-dummy.elf
[src/arch/riscv64/kernel/core_local.rs:38] CPU_ONLINE.load(Ordering::Relaxed) = 0
[0][WARN] Unable to read entropy! Fallback to a naive implementation!
Hello World
I am [SMART_ROLLUP_HASH]
RollupMetadata {
    raw_rollup_address: [
        244,
        228,
        124,
        179,
        196,
        58,
        104,
        176,
        212,
        142,
        48,
        148,
        9,
        44,
        164,
        45,
        113,
        58,
        221,
        181,
    ],
    origination_level: 0,
}
[09, 90, A8, 2F, DD, B2, 8D, E6, 07, 33, 28, 86, 5C, EF, 23, A4, D5, 2A, CC, 6C, D4, 17, D8, AB, 39, 66, 69, D6, 3C, 3B, A8, BD]
Internal(
    StartOfLevel,
)
Internal(
    InfoPerLevel(
        InfoPerLevel {
            predecessor_timestamp: [TIMESTAMP],
            predecessor: BlockHash(
                "[BLOCK_HASH]",
            ),
        },
    ),
)
External(
    [
        1,
        2,
        3,
        4,
    ],
)
External(
    [
        1,
        4,
        3,
        2,
    ],
)
Internal(
    EndOfLevel,
)
Internal(
    StartOfLevel,
)
Internal(
    InfoPerLevel(
        InfoPerLevel {
            predecessor_timestamp: [TIMESTAMP],
            predecessor: BlockHash(
                "[BLOCK_HASH]",
            ),
        },
    ),
)
External(
    [
        1,
        1,
    ],
)
Internal(
    EndOfLevel,
)
Internal(
    StartOfLevel,
)
Internal(
    InfoPerLevel(
        InfoPerLevel {
            predecessor_timestamp: [TIMESTAMP],
            predecessor: BlockHash(
                "[BLOCK_HASH]",
            ),
        },
    ),
)
External(
    [
        1,
        2,
    ],
)
Internal(
    EndOfLevel,
)
Internal(
    StartOfLevel,
)
Internal(
    InfoPerLevel(
        InfoPerLevel {
            predecessor_timestamp: [TIMESTAMP],
            predecessor: BlockHash(
                "[BLOCK_HASH]",
            ),
        },
    ),
)
Internal(
    Transfer(
        Transfer {
            payload: MichelsonUnit,
            sender: ContractKt1Hash(
                "[CONTRACT_HASH]",
            ),
            source: Ed25519(
                ContractTz1Hash(
                    "[PUBLIC_KEY_HASH]",
                ),
            ),
            destination: SmartRollupAddress {
                hash: SmartRollupHash(
                    "[SMART_ROLLUP_HASH]",
                ),
            },
        },
    ),
)
Internal(
    EndOfLevel,
)
Signature is [133, 153, 89, 165, 225, 52, 223, 180, 255, 131, 0, 136, 151, 153, 173, 101, 89, 156, 116, 182, 204, 196, 243, 216, 218, 77, 17, 96, 8, 132, 254, 190, 220, 2, 63, 202, 122, 112, 169, 61, 119, 166, 30, 78, 142, 64, 30, 40, 210, 60, 25, 219, 193, 87, 197, 19, 194, 101, 0, 232, 241, 244, 56, 2]
Done
