
./octez-client --protocol PtParisBQscdCm6Cfow6ndeU6wKJyA3aV1j4D3gQBQMsTQyJCrz --mode mockup --no-base-dir-warnings run script michelson_test_scripts/opcodes/concat_list.tz on storage '""' and input '{ "Hello" ; " " ; "World" ; "!" }' --level 1 --trace-stack
storage
  "Hello World!"
emitted operations
  
big_map diff
  
trace
  - location: 8 (just consumed gas: 10.968)
    [ (Pair { "Hello" ; " " ; "World" ; "!" } "") ]
  - location: 8 (just consumed gas: 0.010)
    [ { "Hello" ; " " ; "World" ; "!" } ]
  - location: 9 (just consumed gas: 0.010)
    [ ""
      { "Hello" ; " " ; "World" ; "!" } ]
  - location: 12 (just consumed gas: 0.010)
    [ { "Hello" ; " " ; "World" ; "!" }
      "" ]
  - location: 13 (just consumed gas: 0.030)
    [ "Hello"
      "" ]
  - location: 15 (just consumed gas: 0.010)
    [ ""
      "Hello" ]
  - location: 16 (just consumed gas: 0.010)
    [ "Hello" ]
  - location: 18 (just consumed gas: 0.010)
    [ {}
      "Hello" ]
  - location: 20 (just consumed gas: 0.010)
    [ "Hello"
      {} ]
  - location: 21 (just consumed gas: 0.010)
    [ { "Hello" } ]
  - location: 16 (just consumed gas: 0.035)
    [ ""
      { "Hello" } ]
  - location: 22 (just consumed gas: 0.010)
    [ { "" ; "Hello" } ]
  - location: 23 (just consumed gas: 0.122)
    [ "Hello" ]
  - location: 13 (just consumed gas: 0.025)
    [ " "
      "Hello" ]
  - location: 15 (just consumed gas: 0.010)
    [ "Hello"
      " " ]
  - location: 16 (just consumed gas: 0.010)
    [ " " ]
  - location: 18 (just consumed gas: 0.010)
    [ {}
      " " ]
  - location: 20 (just consumed gas: 0.010)
    [ " "
      {} ]
  - location: 21 (just consumed gas: 0.010)
    [ { " " } ]
  - location: 16 (just consumed gas: 0.035)
    [ "Hello"
      { " " } ]
  - location: 22 (just consumed gas: 0.010)
    [ { "Hello" ; " " } ]
  - location: 23 (just consumed gas: 0.123)
    [ "Hello " ]
  - location: 13 (just consumed gas: 0.025)
    [ "World"
      "Hello " ]
  - location: 15 (just consumed gas: 0.010)
    [ "Hello "
      "World" ]
  - location: 16 (just consumed gas: 0.010)
    [ "World" ]
  - location: 18 (just consumed gas: 0.010)
    [ {}
      "World" ]
  - location: 20 (just consumed gas: 0.010)
    [ "World"
      {} ]
  - location: 21 (just consumed gas: 0.010)
    [ { "World" } ]
  - location: 16 (just consumed gas: 0.035)
    [ "Hello "
      { "World" } ]
  - location: 22 (just consumed gas: 0.010)
    [ { "Hello " ; "World" } ]
  - location: 23 (just consumed gas: 0.125)
    [ "Hello World" ]
  - location: 13 (just consumed gas: 0.025)
    [ "!"
      "Hello World" ]
  - location: 15 (just consumed gas: 0.010)
    [ "Hello World"
      "!" ]
  - location: 16 (just consumed gas: 0.010)
    [ "!" ]
  - location: 18 (just consumed gas: 0.010)
    [ {}
      "!" ]
  - location: 20 (just consumed gas: 0.010)
    [ "!"
      {} ]
  - location: 21 (just consumed gas: 0.010)
    [ { "!" } ]
  - location: 16 (just consumed gas: 0.035)
    [ "Hello World"
      { "!" } ]
  - location: 22 (just consumed gas: 0.010)
    [ { "Hello World" ; "!" } ]
  - location: 23 (just consumed gas: 0.126)
    [ "Hello World!" ]
  - location: 13 (just consumed gas: 0.035)
    [ "Hello World!" ]
  - location: 24 (just consumed gas: 0.010)
    [ {}
      "Hello World!" ]
  - location: 26 (just consumed gas: 0.010)
    [ (Pair {} "Hello World!") ]

