
./octez-client --protocol PtParisBQscdCm6Cfow6ndeU6wKJyA3aV1j4D3gQBQMsTQyJCrz --mode mockup --no-base-dir-warnings run script michelson_test_scripts/opcodes/map_mem_nat.tz on storage '(Pair {} None)' and input 1 --level 1 --trace-stack
storage
  (Pair {} (Some False))
emitted operations
  
big_map diff
  
trace
  - location: 12 (just consumed gas: 9.144)
    [ (Pair 1 {} None) ]
  - location: 12 (just consumed gas: 0.010)
    [ 1
      (Pair {} None) ]
  - location: 13 (just consumed gas: 0.010)
    [ (Pair {} None) ]
  - location: 15 (just consumed gas: 0.010)
    [ {} ]
  - location: 16 (just consumed gas: 0.010)
    [ {}
      {} ]
  - location: 13 (just consumed gas: 0.035)
    [ 1
      {}
      {} ]
  - location: 17 (just consumed gas: 0.045)
    [ False
      {} ]
  - location: 18 (just consumed gas: 0.010)
    [ (Some False)
      {} ]
  - location: 19 (just consumed gas: 0.010)
    [ {}
      (Some False) ]
  - location: 20 (just consumed gas: 0.010)
    [ (Pair {} (Some False)) ]
  - location: 21 (just consumed gas: 0.010)
    [ {}
      (Pair {} (Some False)) ]
  - location: 23 (just consumed gas: 0.010)
    [ (Pair {} {} (Some False)) ]

