
./octez-client --protocol PtParisBQscdCm6Cfow6ndeU6wKJyA3aV1j4D3gQBQMsTQyJCrz --mode mockup --no-base-dir-warnings run script michelson_test_scripts/opcodes/set_iter.tz on storage 111 and input '{ 1 }' --level 1 --trace-stack
storage
  1
emitted operations
  
big_map diff
  
trace
  - location: 8 (just consumed gas: 6.746)
    [ (Pair { 1 } 111) ]
  - location: 8 (just consumed gas: 0.010)
    [ { 1 } ]
  - location: 9 (just consumed gas: 0.010)
    [ 0
      { 1 } ]
  - location: 12 (just consumed gas: 0.010)
    [ { 1 }
      0 ]
  - location: 13 (just consumed gas: 0.067)
    [ 1
      0 ]
  - location: 15 (just consumed gas: 0.035)
    [ 1 ]
  - location: 13 (just consumed gas: 0.035)
    [ 1 ]
  - location: 16 (just consumed gas: 0.010)
    [ {}
      1 ]
  - location: 18 (just consumed gas: 0.010)
    [ (Pair {} 1) ]

