
./octez-client --protocol PtParisBQscdCm6Cfow6ndeU6wKJyA3aV1j4D3gQBQMsTQyJCrz --mode mockup --no-base-dir-warnings run script michelson_test_scripts/opcodes/not_binary.tz on storage None and input '(Right 8)' --level 1 --trace-stack
storage
  (Some -9)
emitted operations
  
big_map diff
  
trace
  - location: 10 (just consumed gas: 6.822)
    [ (Pair (Right 8) None) ]
  - location: 10 (just consumed gas: 0.010)
    [ (Right 8) ]
  - location: 11 (just consumed gas: 0.010)
    [ 8 ]
  - location: 15 (just consumed gas: 0.025)
    [ -9 ]
  - location: 11 (just consumed gas: 0.025)
    [ -9 ]
  - location: 16 (just consumed gas: 0.010)
    [ (Some -9) ]
  - location: 17 (just consumed gas: 0.010)
    [ {}
      (Some -9) ]
  - location: 19 (just consumed gas: 0.010)
    [ (Pair {} (Some -9)) ]

