
./octez-client --protocol PtParisBQscdCm6Cfow6ndeU6wKJyA3aV1j4D3gQBQMsTQyJCrz --mode mockup --no-base-dir-warnings run script michelson_test_scripts/opcodes/set_size.tz on storage 111 and input '{ 1 ; 2 ; 3 ; 4 ; 5 ; 6 }' --level 1 --trace-stack
storage
  6
emitted operations
  
big_map diff
  
trace
  - location: 8 (just consumed gas: 5.361)
    [ (Pair { 1 ; 2 ; 3 ; 4 ; 5 ; 6 } 111) ]
  - location: 8 (just consumed gas: 0.010)
    [ { 1 ; 2 ; 3 ; 4 ; 5 ; 6 } ]
  - location: 9 (just consumed gas: 0.010)
    [ 6 ]
  - location: 10 (just consumed gas: 0.010)
    [ {}
      6 ]
  - location: 12 (just consumed gas: 0.010)
    [ (Pair {} 6) ]

